kb3173427
kb5014024
windows10.0-kb3172729-x64_f4fc9775baa98c176f43e87c40088231a884122b
windows10.0-kb3172729-x86_ccd5d58825da26dc8c870b6f85bd59ab8d8399dd
windows10.0-kb4535680-x64_746bd623e650e16e8eb49474a4023cfd34c67cc1
windows10.0-kb5012170-x64_b566342847f3ea7f50d3de2c9969fb19b9c92294
windows10.0-kb5012170-x86_5b2297ca0262133be2febe2c2315bfe2471eaba6
kb5018425
