{e46eca4f-393b-40df-9f49-076faf788d83}
{0D3E9E15-DE7A-300B-96F1-B4AF12B96488}
{BC958BD2-5DAC-3862-BB1A-C1BE0790438D}
{3ee5e5bb-b7cc-4556-8861-a00a82977d6c}
{A1C31BA5-5438-3A07-9EEE-A5FB2D0FDE36}
{B0B194F8-E0CE-33FE-AA11-636428A4B73D}
{17D86CC1-3DC5-3D6A-97B3-2735413139A0}
{0B802A71-C31B-369B-9D74-D3625C8D3EE4}
{7B50D081-E670-3B43-A460-0E2CDB5CE984}
{DFFEB619-5455-3697-B145-243D936DB95B}
{140427E6-1A2D-3E5E-B4FE-892388D5DE0F}
{EBC8600D-35A7-3C68-80A1-79DCE24A0C5D}
{FDBE9DB4-7A91-3A28-B27E-705EF7CFAE57}
{21134089-9B59-34C8-BE11-929D26AD5207}
{C0B2C673-ECAA-372D-94E5-E89440D087AD}
{95265B86-188E-3F62-9CDB-60FCE59EC721}
{FAAD7243-0141-3987-AA2F-E56B20F80E41}
{F20396E5-D84E-3505-A7A8-7358F0155F6C}
{50A2BC33-C9CD-3BF1-A8FF-53C10A0B183C}
{EF1EC6A9-17DE-3DA9-B040-686A1E8A8B04}
{4669489D-D5F2-3A8E-BA68-B0DB3D58AD01}
{5F66DC83-1294-37C2-8F20-80B67FE08C3F}
{EE6E34BF-D825-384C-AFF5-305DF5CFAF5A}
{6B66663C-055F-3A2E-A09D-168840A82362}
{8D50D8C6-1E3D-3BAB-B2B7-A5399EA1EBD1}
{C668F044-4825-330D-8F9F-3CBFC9F2AB89}
{8D4F7A6D-6B81-3DC8-9C21-6008E4866727}
{E512788E-C50B-3858-A4B9-73AD5F3F9E93}
{B0037450-526D-3448-A370-CACBD87769A0}
{B13B3E11-1555-353F-A63A-8933EE104FBD}
{043D5787-5988-3DE2-928D-3B6A75E2126E}
{7D02C46E-2953-3EB1-A5D5-7943C9D7684F}
{C99E2ADC-0347-336E-A603-F1992B09D582}
{2CD849A7-86A1-34A6-B8F9-D72F5B21A9AE}
{7474CD6E-76CC-4257-837E-5B9261E526AF}
{221D6DB4-46E2-333C-B09B-5F49351D0980}
{C5ECDB9A-D9B0-3107-BA85-1269998A5B3E}
{9041F9CA-4E86-3CA1-99E2-409FB7E8C1D1}
{A35414B8-19C5-3B9E-B55B-49E5A9E45570}
{BCA8F863-9BAB-3398-B8E4-E1D0959D0943}
{A2999714-5C2C-3729-A911-4AE198B7B2FD}
{80586C77-DB42-44BB-BFC8-7AEBBB220C00}
{03EBF679-E886-38AD-8E70-28658449F7F9}
{B12F584A-DE7A-3EE3-8EC4-8A64DBC0F2A7}
{2F99FED3-D311-381B-9ABB-5EE2EB154F7D}
{96D481C5-CE17-3E69-9C92-596DF65E31FC}
{8FC08468-AFD9-3F92-A686-405C72872976}
{1CE49089-08AA-3E51-BD20-0A25911884A4}
{C77195A4-CEB8-38EE-BDD6-C46CB459EF6E}
{F106B700-BFF8-3065-B305-14D36AD40539}
{3ECD99CB-EDAF-45DA-AD9C-2C4875F375FB}
{DF5B1280-A057-4536-9D03-3BCAA0D4C6F0}
{F1B0FB3A-E0EA-47A6-9383-3650655403B0}
{9D29FC96-9EEE-4253-943F-96B3BBFDD0B6}
{65835E57-3712-4382-990A-8D39008A8E0B}
{27744187-E45F-41F3-8BC2-0DC5F9238FDB}
{0CBC6E34-0CDF-4CEC-AFA1-A6A973272090}
{578482D6-CBBC-4982-AFEF-5AEB5250B505}
{C0B42006-B72B-4793-95B3-9C24DD9895E1}
{D93144D7-EC12-4022-B92B-99493EF90076}
{92D8A718-98FB-4B98-A92E-EB613223D330}
{6D7E8409-0776-4CA3-B90A-48A206D615B0}
{F3241984-5A0E-4632-9025-AA16E0780A4B}
{4931385B-094D-4DC5-BD6A-5188FE9C51DF}
{181C1FD1-22EB-4445-8105-10C15642A95C}
{2A2E0C27-6665-4DBC-A4F4-005AA41BC889}
{DBA9676A-A63F-4B6C-8CCF-127B576367F1}
{7DD91364-FABE-42D8-9DE7-E1F5E9E37B73}
{F7CAC7DF-3524-4C2D-A7DB-E16140A3D5E6}
{12578975-C765-4BDF-8DDC-3284BC0E855F}
{B2DA32C1-FE86-4D4E-881A-C9227C335D26}
{E501A977-B725-4D6A-B419-9A9B7D08846F}
{DB3A77DC-CC8B-42DA-9D87-7691A59BA884}
{64442078-E76B-4333-A8DF-31F06B41482B}
{03309552-F0BC-4A4F-B03D-9D54E08721A2}
{B518025F-6002-4EFA-AAB2-06032DF935E7}
{0093C20C-273D-4397-B623-515CB8616CB9}
{6E2C7A8E-B17A-4637-9CE9-F0B1157CF378}
{A94EC1B2-932B-49D7-8AF2-4FBD29FF314B}
{9CA7111B-263D-45DE-B898-61FAD30B3237}
{7DC387B8-E6A2-480C-8EF9-A6E51AE81C19}
{8678BA04-D161-45BE-ACA4-CC5D13073F35}
{EEA66967-97E2-4561-A999-5C22E3CDE428}
{7D0B74C2-C3F8-4AF1-940F-CD79AB4B2DCE}
{E17725CB-CCEB-4958-817A-E2BDF0462843}
{0F2CDF7A-0B29-4808-BFBE-1204F451A06C}
{DD1EC0FD-3F0A-4740-A05E-1DCD14A6B0D1}
{CB4A0FDE-1126-4AE2-97C6-A243692C3D95}
{EB5BE2A4-FB21-421C-9FA0-F7D7591B1B1F}
{31B12D0C-C856-4B64-A4FE-7E4C2F5BF8E4}
{5E32FCCA-C3AF-48A3-85A7-A6EF70C58577}
{7777D775-6BD3-4EEC-A4F8-A10F0E8CE93B}
{7D8280E3-D04C-45EE-B278-04CDF748B5D5}
{0C5501A3-F6EF-4BF5-BD5F-B8290CD4B709}
{120E07FF-4705-4DD8-9CBB-8D84C14EEED2}
{9053F928-B3A1-4E62-816F-D7137300BF8F}
{E493B8F4-E300-43EC-95D0-BDF3711297EA}
{F07B1E25-5670-4556-9C7F-5A1966C83269}
{37BB1766-C587-49AE-B2DB-618FBDEAB88C}
{1B4EDD59-90CE-4BDE-8520-630981088165}
{579D2F29-51B1-4B7B-8F43-24840404DD49}
{A6915A6C-91F3-4203-B1FE-981E7B3B3FB4}
{A6BC9439-5EF8-42C0-8525-175BF9552E14}
{5F495411-C9CC-465A-9EFB-00E0FEC7BE75}
{37B34C3A-D825-40AF-BB33-A4DA7A6E4782}
{E5281CF4-57AC-41C9-8034-00F8428B8951}
{0DF35B97-904A-4D62-AAED-0B05EC283633}
{C037BA0A-C1E5-4565-A7A2-067EEA84734D}
{17966347-2FFE-45B3-8D3F-CBE82603962D}
{A72A80AF-24EC-4854-B6BC-5904F2818E82}
{7D0362D5-C699-4403-BC09-0C1DAD1D93AB}
{26AF0C35-55EC-4025-8D83-349E8FB1419F}
{8A3F7D5B-422D-49D9-84F7-8DC1B7782967}
{2E11EF4E-901F-4B2D-B68E-3DB2A566C857}
{30D59B1D-01B4-41CC-9BF0-AB62B6AA730B}
{3032E71F-B45F-4ECF-8A06-D4146B6BF00F}
{682FC462-BA23-41F6-9141-BED5E81E35C7}
{0CC72BE4-AFF5-4F53-A0F6-BA2BCE66E1E0}
{F26433CF-A51A-4B53-84F0-50AB6B535BBA}
{D84C3616-2BBA-41AA-B172-5D4497727404}
{50FF98A9-6C60-4DF2-AE02-C48AED35B59B}
{29A1747B-007E-4BB0-A4BE-D6B855C2C56D}
{FA2ED2D5-7D44-4A99-B5C0-62036EFED9FC}
{10F7D571-C8CA-4C88-9805-810750C69C9A}
{DE015560-04E3-4915-8F99-5B29289E3998}
{06F1FCFD-8F77-488A-A477-6CA8A783EDD7}
{EECDD137-13DA-46ED-ADA0-BDF7F8BE65B8}
{620A7633-7A09-42A8-8580-076A4483C4B0}
{455DF12C-7D43-4EFF-AE2F-43C8AF2817A3}
{5A23DBE2-A05C-4A9C-9C17-EA88BF5D7B43}
{5FD9933E-9C5E-48E5-AED3-5CB9C39DAB0E}
{E81E55D9-90EF-4123-B1B9-033E296772FD}
{DF466461-66DA-4607-819D-2FBEC8988AE7}
{E6620CA8-9DB2-4C38-A8B0-747FF71DE909}
{15474458-09D8-4973-8EB9-CEDF109BAC25}
{9E64B58A-1248-47E4-940E-E65BB920D6BF}
{33C38D48-9596-4EA8-A33F-E9ED4859068C}
{8E892E03-B917-497A-A667-2BA6A2634B5B}
{EA21E853-1D6A-4AB5-9EF1-FD84C71308DF}
{A60945BA-2673-4F3B-9121-8958218F8E72}
{DE2ED49E-A82A-49DF-BF8B-C42899C19470}
{C18485C4-97A9-47C1-A100-307517E6C9D6}
{904F67F6-1A96-4A00-B75F-78CC5BD0EEB9}
{19870C57-AB14-41E8-BDE8-EDC2EA65F830}
{C874FB5A-1C85-460A-A4A9-CBCC3FAE7880}
{529D20E8-132A-4F1A-A25F-9211B8C943AC}
{E147410B-EB38-41D4-A27E-6D10F2464D9B}
{FF433313-8784-4858-B864-7F4616086A10}
{A6C420F3-E103-4D9D-8E59-A9B9B99699F6}
{F9107D74-BC73-4794-A38B-CF18EBCF373A}
{C56D2482-32F7-4CB7-AF41-4CC51EBCB17D}
{B3FA5A71-A9C3-42B3-B567-F92C163F3F5B}
{1D035C5A-5934-41DD-9FC9-01B3148B3EE7}
{DDEB3CA3-C299-4A8D-9D8A-286BCBEFEAB6}
{7397283E-6C2F-410C-A003-C8E5E6B41D6B}
{5E05D42B-B363-4435-B428-D615047EDA54}
{ED7828EB-80D2-4343-9E64-0115FEE8E209}
{D121438D-80C5-443F-B982-8E89F5C0D770}
{6CD9E9ED-906D-4196-8DC3-F987D2F6615F}
{E699E009-1C3C-4E50-9B57-2B39F0954C7F}
{920821E6-27F0-4E5E-9AAF-784B4E40FCBD}
{87ECA04E-0718-4C98-9590-5860221B0EF2}
{40118CD9-A805-400C-864E-041A5B5C01B0}
{34DB4181-0770-4B5A-B561-68758A077B0F}
{A6D3F752-BF11-4D7C-B19C-F6F96A35CF50}
{7F4A9F52-173F-4B0D-B1EA-269C32EDA827}
{4325E9E9-CFAD-4512-8A2D-A60043F76F15}
{27772063-4301-48AA-8AE6-361D1097B25A}
{35C59765-2822-46A5-AE40-0266DD4748D4}
{F6A61669-BCD9-4EC7-A8C2-403C86A2F739}
{91823FBE-6862-491D-A419-E2E9D868AEB3}
{2470F04D-028C-49C6-BF05-6D27A2C9C348}
{662A0088-6FCD-45DD-9EA7-68674058AED5}
{6DB765A8-05AF-49A1-A71D-6F645EE3CE41}
{AE043016-3897-41D4-870B-1DAEE62CF152}
{12A2980B-E47B-491B-92F5-0BC703841ED4}
{564EEAC2-A114-4FFD-ACBD-7CB80477A95B}
{235BE642-A24A-47F7-863D-5E1B32CC2320}
{E749F10C-EFEA-43D3-8404-B477DD92AF03}
{D55C642A-D7A4-4581-90A2-D74864791E92}
{7B1F7F61-993B-47D6-A39A-9CF62FA88D69}
{66DF7D29-0EBC-4069-897C-8947E573C03D}
{A181A302-3F6D-4BAD-97A8-A426A6499D78}
{A977984B-9244-49E3-BD24-43F0A8009667}
{2AE9CC53-CA82-4959-A9A6-85BC4597AD95}
{692697D8-221F-47DA-B4D4-483B15FB5D6F}
{C96241EA-9900-4FE8-85B3-1E238D509DF6}
{38624EB5-356D-4B08-8357-C33D89A5C0C5}
